com\cons\Constants.class
com\pages\PageObjectModelIntro.class
com\javaprop\ReadProperties.class
com\pages\LoginPage.class
com\seleniumreusable\SeleniumReusableMethods.class
com\datadriven\DataDrivenTesting.class
